{
    "r2_301": {
        "RessourceName": "r2_301",
        "Starting": 0.026021190721649486,
        "Ending": 82182.13723319903,
        "Makespan": 82182.11121200831,
        "CostPerHour": 0.113,
        "UsageCost": 9286.57856695694
    },
    "r2_302": {
        "RessourceName": "r2_302",
        "Starting": 0.5974513858615611,
        "Ending": 80909.20384303128,
        "Makespan": 80908.60639164541,
        "CostPerHour": 0.113,
        "UsageCost": 9142.672522255933
    },
    "Total": {
        "RessourceName": "All",
        "Starting": 0.026021190721649486,
        "Ending": 82182.13723319903,
        "Makespan": 82182.11121200831,
        "CostPerHour": "Not Defined Property",
        "UsageCost": 18429.25108921287
    }
}