{
    "r2_601": {
        "RessourceName": "r2_601",
        "Starting": 0.026021190721649486,
        "Ending": 2643.8214535450525,
        "Makespan": 2643.795432354331,
        "CostPerHour": 0.22,
        "UsageCost": 581.6349951179528
    },
    "r2_602": {
        "RessourceName": "r2_602",
        "Starting": 0.45459424300441825,
        "Ending": 2504.7969837885385,
        "Makespan": 2504.342389545534,
        "CostPerHour": 0.22,
        "UsageCost": 550.9553257000175
    },
    "r2_603": {
        "RessourceName": "r2_603",
        "Starting": 0.5974513858615611,
        "Ending": 2545.815091710173,
        "Makespan": 2545.2176403243116,
        "CostPerHour": 0.22,
        "UsageCost": 559.9478808713485
    },
    "r2_604": {
        "RessourceName": "r2_604",
        "Starting": 0.7403085287187039,
        "Ending": 2582.440040099318,
        "Makespan": 2581.6997315705994,
        "CostPerHour": 0.22,
        "UsageCost": 567.9739409455319
    },
    "r2_605": {
        "RessourceName": "r2_605",
        "Starting": 0.8831656715758467,
        "Ending": 2606.4233566733924,
        "Makespan": 2605.5401910018168,
        "CostPerHour": 0.22,
        "UsageCost": 573.2188420203997
    },
    "r2_606": {
        "RessourceName": "r2_606",
        "Starting": 1.0260228144329895,
        "Ending": 2644.6372055088405,
        "Makespan": 2643.6111826944075,
        "CostPerHour": 0.22,
        "UsageCost": 581.5944601927697
    },
    "r2_607": {
        "RessourceName": "r2_607",
        "Starting": 1.1688799572901323,
        "Ending": 2644.034758643282,
        "Makespan": 2642.865878685992,
        "CostPerHour": 0.22,
        "UsageCost": 581.4304933109182
    },
    "r2_608": {
        "RessourceName": "r2_608",
        "Starting": 1.311737100147275,
        "Ending": 2633.746223177884,
        "Makespan": 2632.434486077737,
        "CostPerHour": 0.22,
        "UsageCost": 579.1355869371022
    },
    "r2_609": {
        "RessourceName": "r2_609",
        "Starting": 1.4545942971281292,
        "Ending": 2465.5395684050895,
        "Makespan": 2464.0849741079614,
        "CostPerHour": 0.22,
        "UsageCost": 542.0986943037515
    },
    "r2_6010": {
        "RessourceName": "r2_6010",
        "Starting": 1.5974498703976432,
        "Ending": 2659.1272601814226,
        "Makespan": 2657.529810311025,
        "CostPerHour": 0.22,
        "UsageCost": 584.6565582684254
    },
    "r2_6011": {
        "RessourceName": "r2_6011",
        "Starting": 1.740308636966126,
        "Ending": 2441.7483278667705,
        "Makespan": 2440.008019229804,
        "CostPerHour": 0.22,
        "UsageCost": 536.801764230557
    },
    "r2_6012": {
        "RessourceName": "r2_6012",
        "Starting": 1.8831657798232688,
        "Ending": 2364.1741543901217,
        "Makespan": 2362.2909886102984,
        "CostPerHour": 0.22,
        "UsageCost": 519.7040174942657
    },
    "r2_6013": {
        "RessourceName": "r2_6013",
        "Starting": 2.0260212989690713,
        "Ending": 2496.5333299949098,
        "Makespan": 2494.5073086959405,
        "CostPerHour": 0.22,
        "UsageCost": 548.7916079131069
    },
    "r2_6014": {
        "RessourceName": "r2_6014",
        "Starting": 2.168878441826214,
        "Ending": 2462.47101870695,
        "Makespan": 2460.302140265124,
        "CostPerHour": 0.22,
        "UsageCost": 541.2664708583272
    },
    "r2_6015": {
        "RessourceName": "r2_6015",
        "Starting": 2.3117372083946974,
        "Ending": 2611.283348661543,
        "Makespan": 2608.9716114531484,
        "CostPerHour": 0.22,
        "UsageCost": 573.9737545196926
    },
    "r2_6016": {
        "RessourceName": "r2_6016",
        "Starting": 2.4545943512518402,
        "Ending": 2555.9514539868924,
        "Makespan": 2553.4968596356407,
        "CostPerHour": 0.22,
        "UsageCost": 561.769309119841
    },
    "r2_6017": {
        "RessourceName": "r2_6017",
        "Starting": 2.597451494108983,
        "Ending": 2573.002973540323,
        "Makespan": 2570.405522046214,
        "CostPerHour": 0.22,
        "UsageCost": 565.4892148501672
    },
    "r2_6018": {
        "RessourceName": "r2_6018",
        "Starting": 2.7403070132547853,
        "Ending": 2536.506264757886,
        "Makespan": 2533.765957744631,
        "CostPerHour": 0.22,
        "UsageCost": 557.4285107038188
    },
    "r2_6019": {
        "RessourceName": "r2_6019",
        "Starting": 2.8831657798232686,
        "Ending": 2550.0358215796573,
        "Makespan": 2547.152655799834,
        "CostPerHour": 0.22,
        "UsageCost": 560.3735842759635
    },
    "r2_6020": {
        "RessourceName": "r2_6020",
        "Starting": 3.0260229226804114,
        "Ending": 2669.2266963576194,
        "Makespan": 2666.200673434939,
        "CostPerHour": 0.22,
        "UsageCost": 586.5641481556866
    },
    "r2_6021": {
        "RessourceName": "r2_6021",
        "Starting": 3.168880065537554,
        "Ending": 2559.103198781725,
        "Makespan": 2555.9343187161876,
        "CostPerHour": 0.22,
        "UsageCost": 562.3055501175613
    },
    "r2_6022": {
        "RessourceName": "r2_6022",
        "Starting": 3.3117373166421196,
        "Ending": 2676.360184154001,
        "Makespan": 2673.0484468373593,
        "CostPerHour": 0.22,
        "UsageCost": 588.070658304219
    },
    "r2_6023": {
        "RessourceName": "r2_6023",
        "Starting": 3.4545944594992624,
        "Ending": 2589.713551182605,
        "Makespan": 2586.2589567231057,
        "CostPerHour": 0.22,
        "UsageCost": 568.9769704790832
    },
    "r2_6024": {
        "RessourceName": "r2_6024",
        "Starting": 3.5974514941089826,
        "Ending": 2652.454206235056,
        "Makespan": 2648.856754740947,
        "CostPerHour": 0.22,
        "UsageCost": 582.7484860430084
    },
    "r2_6025": {
        "RessourceName": "r2_6025",
        "Starting": 3.7403086369661254,
        "Ending": 2556.0630230745564,
        "Makespan": 2552.32271443759,
        "CostPerHour": 0.22,
        "UsageCost": 561.5109971762698
    },
    "r2_6026": {
        "RessourceName": "r2_6026",
        "Starting": 3.8831641561119277,
        "Ending": 2473.6455032219537,
        "Makespan": 2469.762339065842,
        "CostPerHour": 0.22,
        "UsageCost": 543.3477145944852
    },
    "r2_6027": {
        "RessourceName": "r2_6027",
        "Starting": 4.026022922680411,
        "Ending": 2575.348801050224,
        "Makespan": 2571.3227781275436,
        "CostPerHour": 0.22,
        "UsageCost": 565.6910111880596
    },
    "r2_6028": {
        "RessourceName": "r2_6028",
        "Starting": 4.168880065537555,
        "Ending": 2626.415125218635,
        "Makespan": 2622.2462451530973,
        "CostPerHour": 0.22,
        "UsageCost": 576.8941739336814
    },
    "r2_6029": {
        "RessourceName": "r2_6029",
        "Starting": 4.311735584683358,
        "Ending": 2664.633222619244,
        "Makespan": 2660.3214870345605,
        "CostPerHour": 0.22,
        "UsageCost": 585.2707271476033
    },
    "r2_6030": {
        "RessourceName": "r2_6030",
        "Starting": 4.454594351251841,
        "Ending": 2468.237182954283,
        "Makespan": 2463.7825886030314,
        "CostPerHour": 0.22,
        "UsageCost": 542.0321694926669
    },
    "r2_6031": {
        "RessourceName": "r2_6031",
        "Starting": 4.597449870397645,
        "Ending": 2772.4475591744463,
        "Makespan": 2767.8501093040486,
        "CostPerHour": 0.22,
        "UsageCost": 608.9270240468907
    },
    "r2_6032": {
        "RessourceName": "r2_6032",
        "Starting": 9.168878441826218,
        "Ending": 2690.5068212444353,
        "Makespan": 2681.337942802609,
        "CostPerHour": 0.22,
        "UsageCost": 589.8943474165741
    },
    "Total": {
        "RessourceName": "All",
        "Starting": 0.026021190721649486,
        "Ending": 2772.4475591744463,
        "Makespan": 2772.4215379837246,
        "CostPerHour": "Not Defined Property",
        "UsageCost": 18130.478989729752
    }
}