{
    "r2_2401": {
        "RessourceName": "r2_2401",
        "Starting": 0.026021190721649486,
        "Ending": 712.9222007050856,
        "Makespan": 712.896179514364,
        "CostPerHour": 0.871,
        "UsageCost": 620.932572357011
    },
    "r2_2402": {
        "RessourceName": "r2_2402",
        "Starting": 0.45459424300441825,
        "Ending": 681.4501873053073,
        "Makespan": 680.9955930623029,
        "CostPerHour": 0.871,
        "UsageCost": 593.1471615572658
    },
    "r2_2403": {
        "RessourceName": "r2_2403",
        "Starting": 0.5974513858615611,
        "Ending": 687.6358699022941,
        "Makespan": 687.0384185164326,
        "CostPerHour": 0.871,
        "UsageCost": 598.4104625278128
    },
    "r2_2404": {
        "RessourceName": "r2_2404",
        "Starting": 0.7403085287187039,
        "Ending": 650.5432177169628,
        "Makespan": 649.802909188244,
        "CostPerHour": 0.871,
        "UsageCost": 565.9783339029606
    },
    "r2_2405": {
        "RessourceName": "r2_2405",
        "Starting": 0.8831656715758467,
        "Ending": 777.87853449131,
        "Makespan": 776.9953688197342,
        "CostPerHour": 0.871,
        "UsageCost": 676.7629662419885
    },
    "r2_2406": {
        "RessourceName": "r2_2406",
        "Starting": 1.0260228144329895,
        "Ending": 656.9729495811138,
        "Makespan": 655.9469267666808,
        "CostPerHour": 0.871,
        "UsageCost": 571.3297732137789
    },
    "r2_2407": {
        "RessourceName": "r2_2407",
        "Starting": 1.1688799572901323,
        "Ending": 679.4270650143891,
        "Makespan": 678.2581850570989,
        "CostPerHour": 0.871,
        "UsageCost": 590.7628791847332
    },
    "r2_2408": {
        "RessourceName": "r2_2408",
        "Starting": 1.311737100147275,
        "Ending": 744.6984267774235,
        "Makespan": 743.3866896772762,
        "CostPerHour": 0.871,
        "UsageCost": 647.4898067089075
    },
    "r2_2409": {
        "RessourceName": "r2_2409",
        "Starting": 1.4545942971281292,
        "Ending": 869.8217101350327,
        "Makespan": 868.3671158379046,
        "CostPerHour": 0.871,
        "UsageCost": 756.3477578948149
    },
    "r2_24010": {
        "RessourceName": "r2_24010",
        "Starting": 1.5974498703976432,
        "Ending": 694.6095664588373,
        "Makespan": 693.0121165884397,
        "CostPerHour": 0.871,
        "UsageCost": 603.613553548531
    },
    "r2_24011": {
        "RessourceName": "r2_24011",
        "Starting": 1.740308636966126,
        "Ending": 681.7911594167412,
        "Makespan": 680.050850779775,
        "CostPerHour": 0.871,
        "UsageCost": 592.324291029184
    },
    "r2_24012": {
        "RessourceName": "r2_24012",
        "Starting": 1.8831657798232688,
        "Ending": 653.8569704717728,
        "Makespan": 651.9738046919496,
        "CostPerHour": 0.871,
        "UsageCost": 567.8691838866881
    },
    "r2_24013": {
        "RessourceName": "r2_24013",
        "Starting": 2.0260212989690713,
        "Ending": 736.4008974490738,
        "Makespan": 734.3748761501047,
        "CostPerHour": 0.871,
        "UsageCost": 639.6405171267412
    },
    "r2_24014": {
        "RessourceName": "r2_24014",
        "Starting": 2.168878441826214,
        "Ending": 733.9760437339799,
        "Makespan": 731.8071652921536,
        "CostPerHour": 0.871,
        "UsageCost": 637.4040409694658
    },
    "r2_24015": {
        "RessourceName": "r2_24015",
        "Starting": 2.3117372083946974,
        "Ending": 669.4017950823076,
        "Makespan": 667.0900578739129,
        "CostPerHour": 0.871,
        "UsageCost": 581.0354404081781
    },
    "r2_24016": {
        "RessourceName": "r2_24016",
        "Starting": 2.4545943512518402,
        "Ending": 671.6446564138797,
        "Makespan": 669.1900620626279,
        "CostPerHour": 0.871,
        "UsageCost": 582.8645440565489
    },
    "r2_24017": {
        "RessourceName": "r2_24017",
        "Starting": 2.597451494108983,
        "Ending": 743.2320171670398,
        "Makespan": 740.6345656729308,
        "CostPerHour": 0.871,
        "UsageCost": 645.0927067011227
    },
    "r2_24018": {
        "RessourceName": "r2_24018",
        "Starting": 2.7403070132547853,
        "Ending": 668.3750024419604,
        "Makespan": 665.6346954287056,
        "CostPerHour": 0.871,
        "UsageCost": 579.7678197184026
    },
    "r2_24019": {
        "RessourceName": "r2_24019",
        "Starting": 2.8831657798232686,
        "Ending": 679.0830570507671,
        "Makespan": 676.1998912709439,
        "CostPerHour": 0.871,
        "UsageCost": 588.9701052969922
    },
    "r2_24020": {
        "RessourceName": "r2_24020",
        "Starting": 3.0260229226804114,
        "Ending": 715.0873750745833,
        "Makespan": 712.0613521519028,
        "CostPerHour": 0.871,
        "UsageCost": 620.2054377243073
    },
    "r2_24021": {
        "RessourceName": "r2_24021",
        "Starting": 3.168880065537554,
        "Ending": 707.9933611457188,
        "Makespan": 704.8244810801813,
        "CostPerHour": 0.871,
        "UsageCost": 613.9021230208378
    },
    "r2_24022": {
        "RessourceName": "r2_24022",
        "Starting": 3.3117373166421196,
        "Ending": 757.2389501688903,
        "Makespan": 753.9272128522481,
        "CostPerHour": 0.871,
        "UsageCost": 656.670602394308
    },
    "r2_24023": {
        "RessourceName": "r2_24023",
        "Starting": 3.4545944594992624,
        "Ending": 693.596082798279,
        "Makespan": 690.1414883387797,
        "CostPerHour": 0.871,
        "UsageCost": 601.1132363430771
    },
    "r2_24024": {
        "RessourceName": "r2_24024",
        "Starting": 3.5974514941089826,
        "Ending": 696.7787286688605,
        "Makespan": 693.1812771747515,
        "CostPerHour": 0.871,
        "UsageCost": 603.7608924192085
    },
    "r2_24025": {
        "RessourceName": "r2_24025",
        "Starting": 3.7403086369661254,
        "Ending": 759.1809621998676,
        "Makespan": 755.4406535629015,
        "CostPerHour": 0.871,
        "UsageCost": 657.9888092532872
    },
    "r2_24026": {
        "RessourceName": "r2_24026",
        "Starting": 3.8831641561119277,
        "Ending": 698.7998096167272,
        "Makespan": 694.9166454606153,
        "CostPerHour": 0.871,
        "UsageCost": 605.2723981961959
    },
    "r2_24027": {
        "RessourceName": "r2_24027",
        "Starting": 4.026022922680411,
        "Ending": 717.8502183145858,
        "Makespan": 713.8241953919054,
        "CostPerHour": 0.871,
        "UsageCost": 621.7408741863496
    },
    "r2_24028": {
        "RessourceName": "r2_24028",
        "Starting": 4.168880065537555,
        "Ending": 684.8911504088662,
        "Makespan": 680.7222703433287,
        "CostPerHour": 0.871,
        "UsageCost": 592.9090974690392
    },
    "r2_24029": {
        "RessourceName": "r2_24029",
        "Starting": 4.311735584683358,
        "Ending": 691.792504111779,
        "Makespan": 687.4807685270956,
        "CostPerHour": 0.871,
        "UsageCost": 598.7957493871003
    },
    "r2_24030": {
        "RessourceName": "r2_24030",
        "Starting": 4.454594351251841,
        "Ending": 678.6880901897347,
        "Makespan": 674.2334958384829,
        "CostPerHour": 0.871,
        "UsageCost": 587.2573748753186
    },
    "r2_24031": {
        "RessourceName": "r2_24031",
        "Starting": 4.597449870397645,
        "Ending": 678.9459893172472,
        "Makespan": 674.3485394468495,
        "CostPerHour": 0.871,
        "UsageCost": 587.3575778582059
    },
    "r2_24032": {
        "RessourceName": "r2_24032",
        "Starting": 9.168878441826218,
        "Ending": 715.4132949371367,
        "Makespan": 706.2444164953105,
        "CostPerHour": 0.871,
        "UsageCost": 615.1388867674154
    },
    "Total": {
        "RessourceName": "All",
        "Starting": 0.026021190721649486,
        "Ending": 869.8217101350327,
        "Makespan": 869.7956889443111,
        "CostPerHour": "Not Defined Property",
        "UsageCost": 19601.85697622578
    }
}