{
    "r2_601": {
        "RessourceName": "r2_601",
        "Starting": 0.026021190721649486,
        "Ending": 40812.6237626028,
        "Makespan": 40812.59774141208,
        "CostPerHour": 0.22,
        "UsageCost": 8978.771503110658
    },
    "r2_602": {
        "RessourceName": "r2_602",
        "Starting": 0.5974513858615611,
        "Ending": 41138.90125509218,
        "Makespan": 41138.30380370632,
        "CostPerHour": 0.22,
        "UsageCost": 9050.426836815392
    },
    "Total": {
        "RessourceName": "All",
        "Starting": 0.026021190721649486,
        "Ending": 41138.90125509218,
        "Makespan": 41138.87523390146,
        "CostPerHour": "Not Defined Property",
        "UsageCost": 18029.19833992605
    }
}