{
    "r2_120": {
        "project_type": "Remote",
        "name": "r2_120",
        "layer": "Fog",
        "speed": "12Gf",
        "bw": "20MBps",
        "lat": "1ms",
        "nb_cores": "8",
        "nb_instances": "8",
        "services": [
            "hd1"
        ],
        "cost": "0.443",
        "mobility": {
            "dynamic": false
        }
    }
}