{
    "reachy": {
        "name": "reachy",
        "speed": "10Gf",
        "bw": "20MBps",
        "lat": "1ms",
        "queries": [
            {
                "service": "hd1",
                "nb_queries": "5000",
                "frequency": "7"
            }
        ],
        "mobility": {
            "dynamic": false
        }
    }
}